{
	"info": {
		"_postman_id": "a12ea655-64fc-4b04-aee1-0e19a640ca7e",
		"name": "s32 activity",
		"schema": "https://schema.getpostman.com/json/collection/v2.1.0/collection.json",
		"_exporter_id": "28110093"
	},
	"item": [
		{
			"name": "get /",
			"request": {
				"method": "GET",
				"header": [],
				"url": {
					"raw": "http://localhost:4000/",
					"protocol": "http",
					"host": [
						"localhost"
					],
					"port": "4000",
					"path": [
						""
					]
				}
			},
			"response": []
		},
		{
			"name": "get /profile",
			"request": {
				"method": "GET",
				"header": [],
				"url": {
					"raw": "http://localhost:4000/profile",
					"protocol": "http",
					"host": [
						"localhost"
					],
					"port": "4000",
					"path": [
						"profile"
					]
				}
			},
			"response": []
		},
		{
			"name": "get /courses",
			"request": {
				"method": "GET",
				"header": [],
				"url": {
					"raw": "http://localhost:4000/courses",
					"protocol": "http",
					"host": [
						"localhost"
					],
					"port": "4000",
					"path": [
						"courses"
					]
				}
			},
			"response": []
		},
		{
			"name": "post /addcourse",
			"request": {
				"method": "POST",
				"header": [],
				"url": {
					"raw": "http://localhost:4000/addcourse",
					"protocol": "http",
					"host": [
						"localhost"
					],
					"port": "4000",
					"path": [
						"addcourse"
					]
				}
			},
			"response": []
		},
		{
			"name": "put /updatecourse",
			"request": {
				"method": "PUT",
				"header": [],
				"url": {
					"raw": "http://localhost:4000/updatecourse",
					"protocol": "http",
					"host": [
						"localhost"
					],
					"port": "4000",
					"path": [
						"updatecourse"
					]
				}
			},
			"response": []
		},
		{
			"name": "delete /archivecourses",
			"request": {
				"method": "DELETE",
				"header": [],
				"url": {
					"raw": "http://localhost:4000/archivecourses",
					"protocol": "http",
					"host": [
						"localhost"
					],
					"port": "4000",
					"path": [
						"archivecourses"
					]
				}
			},
			"response": []
		}
	]
}